User-Id,First-Name,Last-Name,Rating
0,FirstName 0,LastName 0,19
1,FirstName 1,LastName 1,255
2,FirstName 2,LastName 2,280
3,FirstName 3,LastName 3,185
4,FirstName 4,LastName 4,179
5,FirstName 5,LastName 5,159
6,FirstName 6,LastName 6,144
7,FirstName 7,LastName 7,182
8,FirstName 8,LastName 8,100
9,FirstName 9,LastName 9,40
